certifi==2018.4.16
chardet==3.0.4
conda==4.3.16
defusedxml==0.5.0
Django==2.0.5
django-appconf==1.0.2
django-bootstrap3==10.0.1
django-bootstrap4==0.0.6
django-colorfield==0.1.15
django-extensions==2.0.7
django-group-by==0.3.1
django-imagekit==4.0.2
django-smart-selects==1.5.4
django-summernote==0.8.10.0
django-tenant-schemas==1.9.0
future==0.16.0
idna==2.7
oauthlib==2.1.0
pilkit==2.0
Pillow==5.1.0
pycosat==0.6.3
pycryptodomex==3.6.1
pyjwkest==1.4.0
PyJWT==1.6.4
python-social-auth==0.3.6
pytz==2018.4
requests==2.19.1
requests-oauthlib==1.0.0
six==1.11.0
social-auth-app-django==2.1.0
social-auth-core==1.7.0